ALU_AND_based/ALU_AND_based.sim/sim_1/behav/xsim/ALU_16bit_and_gate_tb.vcd
$date
   Tue Jul 29 15:27:14 2025
$end

$version
  2024.1
  $dumpfile ("ALU_16bit_and_gate_tb.vcd") 
$end

$timescale
  1ps
$end

$scope module ALU_16bit_and_gate_tb $end
$var reg 1 ! clk $end
$var reg 1 " rst $end
$var reg 1 # en $end
$var reg 1 $ start $end
$var reg 4 % op [3:0] $end
$var reg 16 & A [15:0] $end
$var reg 16 ' B [15:0] $end
$var wire 16 ( Z_low [15:0] $end
$var wire 16 ) Z_high [15:0] $end
$var wire 1 * valid $end
$scope module uut $end
$var wire 1 + clk $end
$var wire 1 , rst $end
$var wire 1 - en $end
$var wire 1 . start $end
$var wire 4 / op [3:0] $end
$var wire 16 0 A [15:0] $end
$var wire 16 1 B [15:0] $end
$var reg 16 2 Z_low [15:0] $end
$var reg 16 3 Z_high [15:0] $end
$var reg 1 4 valid $end
$var wire 1 5 clk_gated $end
$var wire 1 6 start_mul $end
$var wire 1 7 start_div $end
$var wire 16 8 sum [15:0] $end
$var wire 1 9 cout $end
$var wire 16 : diff [15:0] $end
$var wire 1 ; bout $end
$var wire 32 < mul_z [31:0] $end
$var wire 1 = mul_valid $end
$var wire 16 > quot [15:0] $end
$var wire 16 ? rem [15:0] $end
$var wire 1 @ div_valid $end
$var wire 2 A comp_result [1:0] $end
$var wire 16 B shl_out [15:0] $end
$var wire 16 C shr_out [15:0] $end
$var wire 16 D rol_out [15:0] $end
$var wire 16 E ror_out [15:0] $end
$scope module adder $end
$var wire 16 0 A [15:0] $end
$var wire 16 1 B [15:0] $end
$var wire 1 F Cin $end
$var wire 16 8 Sum [15:0] $end
$var wire 1 9 Cout $end
$scope module cla_add $end
$var wire 16 0 A [15:0] $end
$var wire 16 1 B [15:0] $end
$var wire 1 F Cin $end
$var wire 16 8 Sum [15:0] $end
$var wire 1 9 Cout $end
$var wire 4 G C_block [3:0] $end
$scope module CLA0 $end
$var wire 4 H A [3:0] $end
$var wire 4 I B [3:0] $end
$var wire 1 F Cin $end
$var wire 4 J Sum [3:0] $end
$var wire 1 K Cout $end
$var wire 4 L G [3:0] $end
$var wire 4 M P [3:0] $end
$var wire 4 N C [3:0] $end
$upscope $end
$scope module CLA1 $end
$var wire 4 O A [7:4] $end
$var wire 4 P B [7:4] $end
$var wire 1 K Cin $end
$var wire 4 Q Sum [7:4] $end
$var wire 1 R Cout $end
$var wire 4 S G [3:0] $end
$var wire 4 T P [3:0] $end
$var wire 4 U C [3:0] $end
$upscope $end
$scope module CLA2 $end
$var wire 4 V A [11:8] $end
$var wire 4 W B [11:8] $end
$var wire 1 R Cin $end
$var wire 4 X Sum [11:8] $end
$var wire 1 Y Cout $end
$var wire 4 Z G [3:0] $end
$var wire 4 [ P [3:0] $end
$var wire 4 \ C [3:0] $end
$upscope $end
$scope module CLA3 $end
$var wire 4 ] A [15:12] $end
$var wire 4 ^ B [15:12] $end
$var wire 1 Y Cin $end
$var wire 4 _ Sum [15:12] $end
$var wire 1 ` Cout $end
$var wire 4 a G [3:0] $end
$var wire 4 b P [3:0] $end
$var wire 4 c C [3:0] $end
$upscope $end
$upscope $end
$upscope $end
$scope module subtractor $end
$var wire 16 0 A [15:0] $end
$var wire 16 1 B [15:0] $end
$var wire 1 F Bin $end
$var wire 16 : Diff [15:0] $end
$var wire 1 ; Bout $end
$var wire 16 d B_inverted [15:0] $end
$var wire 1 e Cout $end
$var wire 1 f Cin $end
$scope module cla_sub $end
$var wire 16 0 A [15:0] $end
$var wire 16 d B [15:0] $end
$var wire 1 f Cin $end
$var wire 16 : Sum [15:0] $end
$var wire 1 e Cout $end
$var wire 4 g C_block [3:0] $end
$scope module CLA0 $end
$var wire 4 H A [3:0] $end
$var wire 4 h B [3:0] $end
$var wire 1 f Cin $end
$var wire 4 i Sum [3:0] $end
$var wire 1 j Cout $end
$var wire 4 k G [3:0] $end
$var wire 4 l P [3:0] $end
$var wire 4 m C [3:0] $end
$upscope $end
$scope module CLA1 $end
$var wire 4 O A [7:4] $end
$var wire 4 n B [7:4] $end
$var wire 1 j Cin $end
$var wire 4 o Sum [7:4] $end
$var wire 1 p Cout $end
$var wire 4 q G [3:0] $end
$var wire 4 r P [3:0] $end
$var wire 4 s C [3:0] $end
$upscope $end
$scope module CLA2 $end
$var wire 4 V A [11:8] $end
$var wire 4 t B [11:8] $end
$var wire 1 p Cin $end
$var wire 4 u Sum [11:8] $end
$var wire 1 v Cout $end
$var wire 4 w G [3:0] $end
$var wire 4 x P [3:0] $end
$var wire 4 y C [3:0] $end
$upscope $end
$scope module CLA3 $end
$var wire 4 ] A [15:12] $end
$var wire 4 z B [15:12] $end
$var wire 1 v Cin $end
$var wire 4 { Sum [15:12] $end
$var wire 1 | Cout $end
$var wire 4 } G [3:0] $end
$var wire 4 ~ P [3:0] $end
$var wire 4 !! C [3:0] $end
$upscope $end
$upscope $end
$upscope $end
$scope module multiplier $end
$var wire 1 5 clk $end
$var wire 1 , rst $end
$var wire 1 6 start $end
$var wire 16 0 X [15:0] $end
$var wire 16 1 Y [15:0] $end
$var reg 32 "! Z [31:0] $end
$var reg 1 #! valid $end
$var reg 1 $! pres_state $end
$var reg 1 %! next_state $end
$var reg 4 &! count [3:0] $end
$var reg 4 '! next_count [3:0] $end
$var reg 33 (! P [32:0] $end
$var reg 33 )! next_P [32:0] $end
$var reg 33 *! P_temp [32:0] $end
$var reg 32 +! next_Z [31:0] $end
$var reg 1 ,! next_valid $end
$var wire 33 -! M_ext [32:0] $end
$var wire 3 .! triple [2:0] $end
$upscope $end
$scope module divider $end
$var wire 1 5 clk $end
$var wire 1 , rst $end
$var wire 1 7 start $end
$var wire 16 0 A [15:0] $end
$var wire 16 1 B [15:0] $end
$var wire 16 > quot [15:0] $end
$var wire 16 ? rem [15:0] $end
$var reg 1 /! valid $end
$var reg 32 0! Z [31:0] $end
$var reg 32 1! next_Z [31:0] $end
$var reg 32 2! Z_temp [31:0] $end
$var reg 32 3! Z_temp1 [31:0] $end
$var reg 1 4! pres_state $end
$var reg 1 5! next_state $end
$var reg 4 6! count [3:0] $end
$var reg 4 7! next_count [3:0] $end
$var reg 16 8! quot_reg [15:0] $end
$var reg 16 9! rem_reg [15:0] $end
$var reg 1 :! sign_A $end
$var reg 1 ;! sign_B $end
$var reg 1 <! sign_q $end
$var reg 1 =! sign_r $end
$var reg 16 >! A_abs [15:0] $end
$var reg 16 ?! B_abs [15:0] $end
$upscope $end
$scope module comparator $end
$var wire 16 0 A [15:0] $end
$var wire 16 1 B [15:0] $end
$var wire 2 A comp_out [1:0] $end
$var wire 16 @! Diff [15:0] $end
$var wire 1 A! Bout $end
$var wire 1 B! sign $end
$var wire 1 C! zero $end
$var wire 1 D! overflow $end
$var wire 1 E! lt $end
$var wire 1 F! gt $end
$scope module sub $end
$var wire 16 0 A [15:0] $end
$var wire 16 1 B [15:0] $end
$var wire 1 G! Bin $end
$var wire 16 @! Diff [15:0] $end
$var wire 1 A! Bout $end
$var wire 16 H! B_inverted [15:0] $end
$var wire 1 I! Cout $end
$var wire 1 J! Cin $end
$scope module cla_sub $end
$var wire 16 0 A [15:0] $end
$var wire 16 H! B [15:0] $end
$var wire 1 J! Cin $end
$var wire 16 @! Sum [15:0] $end
$var wire 1 I! Cout $end
$var wire 4 K! C_block [3:0] $end
$scope module CLA0 $end
$var wire 4 H A [3:0] $end
$var wire 4 L! B [3:0] $end
$var wire 1 J! Cin $end
$var wire 4 M! Sum [3:0] $end
$var wire 1 N! Cout $end
$var wire 4 O! G [3:0] $end
$var wire 4 P! P [3:0] $end
$var wire 4 Q! C [3:0] $end
$upscope $end
$scope module CLA1 $end
$var wire 4 O A [7:4] $end
$var wire 4 R! B [7:4] $end
$var wire 1 N! Cin $end
$var wire 4 S! Sum [7:4] $end
$var wire 1 T! Cout $end
$var wire 4 U! G [3:0] $end
$var wire 4 V! P [3:0] $end
$var wire 4 W! C [3:0] $end
$upscope $end
$scope module CLA2 $end
$var wire 4 V A [11:8] $end
$var wire 4 X! B [11:8] $end
$var wire 1 T! Cin $end
$var wire 4 Y! Sum [11:8] $end
$var wire 1 Z! Cout $end
$var wire 4 [! G [3:0] $end
$var wire 4 \! P [3:0] $end
$var wire 4 ]! C [3:0] $end
$upscope $end
$scope module CLA3 $end
$var wire 4 ] A [15:12] $end
$var wire 4 ^! B [15:12] $end
$var wire 1 Z! Cin $end
$var wire 4 _! Sum [15:12] $end
$var wire 1 `! Cout $end
$var wire 4 a! G [3:0] $end
$var wire 4 b! P [3:0] $end
$var wire 4 c! C [3:0] $end
$upscope $end
$upscope $end
$upscope $end
$upscope $end
$scope module shl $end
$var wire 16 0 in [15:0] $end
$var wire 4 I ctrl [3:0] $end
$var reg 16 d! out [15:0] $end
$upscope $end
$scope module shr $end
$var wire 16 0 in [15:0] $end
$var wire 4 I ctrl [3:0] $end
$var reg 16 e! out [15:0] $end
$upscope $end
$scope module rol $end
$var wire 16 0 in [15:0] $end
$var wire 4 I ctrl [3:0] $end
$var reg 16 f! out [15:0] $end
$upscope $end
$scope module ror $end
$var wire 16 0 in [15:0] $end
$var wire 4 I ctrl [3:0] $end
$var reg 16 g! out [15:0] $end
$upscope $end
$upscope $end
$scope task ALU $end
$upscope $end
$upscope $end
$enddefinitions $end

#0
$dumpvars
0!
bz111 !!
0"
b0 "!
1#
0#!
0$
0$!
b0 %
0%!
b0 &
b0 &!
b0 '
b0 '!
b0 (
b0 (!
b0 )
b0 )!
0*
bx *!
0+
b0 +!
0,
0,!
1-
b0 -!
0.
b0 .!
b0 /
0/!
b0 0
b0 0!
b0 1
b0 1!
b0 2
bx 2!
b0 3
bx 3!
04
04!
05
05!
06
b0 6!
07
b0 7!
b0 8
b0 8!
09
b0 9!
b0 :
0:!
0;
0;!
b0 <
0<!
0=
0=!
b0 >
b0 >!
b0 ?
b0 ?!
0@
b0 @!
b0 A
0A!
b0 B
0B!
b0 C
1C!
b0 D
0D!
b0 E
0E!
0F
0F!
b0 G
0G!
b0 H
b1111111111111111 H!
b0 I
1I!
b0 J
1J!
0K
b1111 K!
b0 L
b1111 L!
b0 M
b0 M!
bz000 N
1N!
b0 O
b0 O!
b0 P
b1111 P!
b0 Q
bz111 Q!
0R
b1111 R!
b0 S
b0 S!
b0 T
1T!
bz000 U
b0 U!
b0 V
b1111 V!
b0 W
bz111 W!
b0 X
b1111 X!
0Y
b0 Y!
b0 Z
1Z!
b0 [
b0 [!
bz000 \
b1111 \!
b0 ]
bz111 ]!
b0 ^
b1111 ^!
b0 _
b0 _!
0`
1`!
b0 a
b0 a!
b0 b
b1111 b!
bz000 c
bz111 c!
b1111111111111111 d
b0 d!
1e
b0 e!
1f
b0 f!
b1111 g
b0 g!
b1111 h
b0 i
1j
b0 k
b1111 l
bz111 m
b1111 n
b0 o
1p
b0 q
b1111 r
bz111 s
b1111 t
b0 u
1v
b0 w
b1111 x
bz111 y
b1111 z
b0 {
1|
b0 }
b1111 ~
$end

#10000
1!
1+
15

#20000
0!
0+
05

#30000
1!
1+
15

#40000
0!
0+
05

#50000
1!
1"
1$
b1100100 &
b11001 '
b1111101 (
1*
1+
1,
b1100100000000000000000 -!
1.
b1100100 0
b11001 1
b1111101 2
14
15
b1111101 8
b1001011 :
b1001011 @!
b1 A
b1100100000000000 B
0C!
b1100100000000000 D
b11001000000000 E
1F!
b100 H
b1111111111100110 H!
b1001 I
b1101 J
b1110 K!
b110 L!
b1101 M
b1011 M!
0N!
b110 O
b100 O!
b1 P
b10 P!
b111 Q
bz100 Q!
b1110 R!
b100 S!
b111 T
b110 U!
b0 V
b1000 V!
b0 W
bz110 W!
b1111 X!
b0 ]
b0 ^
b1111 ^!
b1111111111100110 d
b1100100000000000 d!
b1100100000000000 f!
b1110 g
b11001000000000 g!
b110 h
b1011 i
0j
b100 k
b10 l
bz100 m
b1110 n
b100 o
b110 q
b1000 r
bz110 s
b1111 t
b1111 z

#60000
0!
0+
05

#70000
1!
0$
0*
1+
0.
04
15

#80000
0!
0+
05

#90000
1!
1+
15

#100000
0!
0+
05

#110000
1!
1$
b1111111110011100 &
b1111111110110101 (
b1111111111111111 )
1*
1+
1.
b1111111110011100 0
b1111111110110101 2
b1111111111111111 3
14
15
b1111111110110101 8
b1111111110000011 :
b1111111110000011 @!
b11 A
b11100000000000 B
1B!
b1111111 C
b11100111111111 D
0D!
b1100111001111111 E
1E!
0F!
b1 G
b1100 H
b101 J
1K
b1111 K!
b1000 L
b101 M
b11 M!
1N!
b1001 O
b1010 P!
b1011 Q
b1 S
b1000 S!
b1000 T
bz001 U
b1000 U!
b1111 V
b111 V!
bz111 W!
b1111 X
b1111 Y!
b1111 [
b1111 [!
b0 \!
b1111 ]
b1111 _
b1111 _!
b1111 a!
b1111 b
b0 b!
b11100000000000 d!
b1111111 e!
b11100111111111 f!
b1111 g
b1100111001111111 g!
b11 i
1j
b1010 l
b1000 o
b1000 q
b111 r
bz111 s
b1111 u
b1111 w
b0 x
b1111 {
b1111 }
b0 ~

#120000
0!
0+
05

#130000
1!
0$
0*
1+
0.
04
15

#140000
0!
0+
05

#150000
1!
1+
15

#160000
0!
0+
05

#170000
1!
bz000 !!
1$
b1111111111100111 '
b1111111110000011 (
1*
1+
b111111111110011100000000000000000 -!
1.
b1111111111100111 1
b1111111110000011 2
14
15
b1111111110000011 8
19
b1111111110110101 :
1;
b1111111110110101 @!
1A!
b1100111000000000 B
b111111111 C
b1100111001111111 D
b11100111111111 E
b1111 G
b11000 H!
b111 I
0I!
b11 J
b1 K!
b100 L
b1000 L!
b1011 M
b101 M!
bz100 N
b1000 O!
b1110 P
b100 P!
b1000 Q
bz000 Q!
1R
b1 R!
b1000 S
b1011 S!
b111 T
0T!
bz111 U
b1 U!
b1000 V!
b1111 W
bz001 W!
b0 X!
1Y
b1111 Z
0Z!
b0 [
b0 [!
bz111 \
b1111 \!
bz000 ]!
b1111 ^
b0 ^!
1`
0`!
b1111 a
b0 a!
b0 b
b1111 b!
bz111 c
bz000 c!
b11000 d
b1100111000000000 d!
0e
b111111111 e!
b1100111001111111 f!
b1 g
b11100111111111 g!
b1000 h
b101 i
b1000 k
b100 l
bz000 m
b1 n
b1011 o
0p
b1 q
b1000 r
bz001 s
b0 t
0v
b0 w
b1111 x
bz000 y
b0 z
0|
b0 }
b1111 ~

#180000
0!
0+
05

#190000
1!
0$
0*
1+
0.
04
15

#200000
0!
0+
05

#210000
1!
1+
15

#220000
0!
0+
05

#230000
1!
bz111 !!
1$
b111111111111111 &
b1 '
b1000000000000000 (
1*
1+
b100000000000000000 -!
1.
b111111111111111 0
b1 1
b1000000000000000 2
14
15
b1000000000000000 8
09
b111111111111110 :
0;
b111111111111110 @!
b1 A
0A!
b1111111111111110 B
0B!
b11111111111111 C
b1111111111111110 D
b1011111111111111 E
0E!
1F!
b111 G
b1111 H
b1111111111111110 H!
b1 I
1I!
b0 J
b1111 K!
b1 L
b1110 L!
b1110 M
b1110 M!
bz111 N
b1111 O
b1110 O!
b0 P
b1 P!
b0 Q
bz111 Q!
b1111 R!
b0 S
b1111 S!
b1111 T
1T!
b1111 U!
b1111 V
b0 V!
b0 W
bz111 W!
b0 X
b1111 X!
b0 Z
1Z!
b1111 [
b1111 [!
b0 \!
b111 ]
bz111 ]!
b0 ^
b1111 ^!
b1000 _
b111 _!
0`
1`!
b0 a
b111 a!
b111 b
b1000 b!
bz111 c!
b1111111111111110 d
b1111111111111110 d!
1e
b11111111111111 e!
b1111111111111110 f!
b1111 g
b1011111111111111 g!
b1110 h
b1110 i
b1110 k
b1 l
bz111 m
b1111 n
b1111 o
1p
b1111 q
b0 r
bz111 s
b1111 t
1v
b1111 w
b0 x
bz111 y
b1111 z
b111 {
1|
b111 }
b1000 ~

#240000
0!
0+
05

#250000
1!
0$
0*
1+
0.
04
15

#260000
0!
0+
05

#270000
1!
1+
15

#280000
0!
0+
05

#290000
1!
1$
b1 %
b11111010 &
b110010 '
b11001000 (
b0 )
1*
1+
b11001000000000000000000 -!
1.
b1 /
b11111010 0
b110010 1
b11001000 2
b0 3
14
15
b100101100 8
b11001000 :
b11001000 @!
b1111101000 B
b111110 C
b1111101000 D
b1000000000111110 E
b10 G
b1010 H
b1111111111001101 H!
b10 I
b1100 J
0K
b10 L
b1101 L!
b1000 M
b1000 M!
bz010 N
b1111 O
b1000 O!
b11 P
b111 P!
b10 Q
b1100 R!
b11 S
b1100 S!
b1100 T
b1100 U!
b0 V
b11 V!
b0 W
b1 X
b1111 X!
0Y
b0 Y!
b0 [
b0 [!
bz000 \
b1111 \!
b0 ]
b0 ^
b1111 ^!
b0 _
b0 _!
b0 a!
b0 b
b1111 b!
bz000 c
b1111111111001101 d
b1111101000 d!
b111110 e!
b1111101000 f!
b1000000000111110 g!
b1101 h
b1000 i
b1000 k
b111 l
b1100 n
b1100 o
b1100 q
b11 r
b1111 t
b0 u
b0 w
b1111 x
b1111 z
b0 {
b0 }
b1111 ~

#300000
0!
0+
05

#310000
1!
0$
0*
1+
0.
04
15

#320000
0!
0+
05

#330000
1!
1+
15

#340000
0!
0+
05

#350000
1!
1$
b1111111100000110 &
b1111111011010100 (
b1111111111111111 )
1*
1+
1.
b1111111100000110 0
b1111111011010100 2
b1111111111111111 3
14
15
b1111111100111000 8
b1111111011010100 :
b1111111011010100 @!
b11 A
b1111110000011000 B
1B!
b11111111000001 C
b1111110000011011 D
0D!
b1011111111000001 E
1E!
0F!
b0 G
b110 H
b1000 J
b1101 K!
b100 M
b100 M!
bz110 N
b0 O
b100 O!
b1011 P!
b11 Q
0R
b0 S
b1101 S!
b11 T
0T!
bz000 U
b0 U!
b1111 V
b1100 V!
bz000 W!
b1111 X
b1110 Y!
b1111 [
b1111 [!
b0 \!
b1111 ]
b1111 _
b1111 _!
b1111 a!
b1111 b
b0 b!
b1111110000011000 d!
b11111111000001 e!
b1111110000011011 f!
b1101 g
b1011111111000001 g!
b100 i
b100 k
b1011 l
b1101 o
0p
b0 q
b1100 r
bz000 s
b1110 u
b1111 w
b0 x
b1111 {
b1111 }
b0 ~

#360000
0!
0+
05

#370000
1!
0$
0*
1+
0.
04
15

#380000
0!
0+
05

#390000
1!
1+
15

#400000
0!
0+
05

#410000
1!
bz000 !!
1$
b1111111111001110 '
b1111111100111000 (
1*
1+
b111111111100111000000000000000000 -!
1.
b1111111111001110 1
b1111111100111000 2
14
15
b1111111011010100 8
19
b1111111100111000 :
1;
b1111111100111000 @!
1A!
b1000000000000000 B
b11 C
b1011111111000001 D
b1111110000011011 E
b1101 G
b110001 H!
b1110 I
0I!
b100 J
1K
b0 K!
b110 L
b1 L!
b1000 M
b1000 M!
0N!
b0 O!
b1100 P
b111 P!
b1101 Q
b11 R!
b11 S!
b1100 T
b11 V!
b1111 W
b1110 X
b0 X!
1Y
b1111 Y!
b1111 Z
0Z!
b0 [
b0 [!
bz111 \
b1111 \!
bz000 ]!
b1111 ^
b0 ^!
1`
0`!
b1111 a
b0 a!
b0 b
b1111 b!
bz111 c
bz000 c!
b110001 d
b1000000000000000 d!
0e
b11 e!
b1011111111000001 f!
b0 g
b1111110000011011 g!
b1 h
b1000 i
0j
b0 k
b111 l
b11 n
b11 o
b11 r
b0 t
b1111 u
0v
b0 w
b1111 x
bz000 y
b0 z
0|
b0 }
b1111 ~

#420000
0!
0+
05

#430000
1!
0$
0*
1+
0.
04
15

#440000
0!
0+
05

#450000
1!
1+
15

#460000
0!
0+
05

#470000
1!
1$
b1000000000000000 &
b1 '
b111111111111111 (
b0 )
1*
1+
b100000000000000000 -!
1.
b1000000000000000 0
b1 1
b111111111111111 2
b0 3
14
15
b1000000000000001 8
09
b111111111111111 :
0;
b111111111111111 @!
0A!
b0 B
0B!
b100000000000000 C
b1 D
1D!
b100000000000000 E
b0 G
b0 H
b1111111111111110 H!
b1 I
1I!
b1 J
0K
b1000 K!
b0 L
b1110 L!
b1 M
b1111 M!
bz000 N
b0 O
b0 P
b1110 P!
b0 Q
bz000 Q!
b1111 R!
b1111 S!
b0 T
b0 V
b1111 V!
b0 W
b0 X
b1111 X!
0Y
b0 Z
bz000 \
b1000 ]
b0 ^
b1111 ^!
b1000 _
b111 _!
0`
1`!
b0 a
b1000 a!
b1000 b
b111 b!
bz000 c
b1111111111111110 d
b0 d!
1e
b100000000000000 e!
b1 f!
b1000 g
b100000000000000 g!
b1110 h
b1111 i
b1110 l
bz000 m
b1111 n
b1111 o
b1111 r
b1111 t
b1111 z
b111 {
1|
b1000 }
b111 ~

#480000
0!
0+
05

#490000
1!
0$
0*
1+
0.
04
15

#500000
0!
0+
05

#510000
1!
1+
15

#520000
0!
0+
05

#530000
1!
bz111 !!
1$
1$!
b10 %
1%!
b10010110 &
b1111000 '
b1 '!
b100101100 (!
b111111111100010000000000001001011 )!
b111111110001000000000000100101100 *!
1+
b111100000000000000000000 -!
1.
b100 .!
b10 /
b10010110 0
b1111000 1
15
16
b100001110 8
b11110 :
0;
b11110 @!
b1 A
0A!
b1001011000000000 B
0B!
b0 C
b1001011000000000 D
0D!
b1001011000000000 E
0E!
1F!
b10 G
b110 H
b1111111110000111 H!
b1000 I
1I!
b1110 J
b1110 K!
b111 L!
b1110 M
b1110 M!
b1001 O
b110 O!
b111 P
b1 P!
bz111 Q!
1R
b1000 R!
b1 S
b1 S!
b1110 T
1T!
bz111 U
b1000 U!
b0 V
b1 V!
b0 W
b1 X
b1111 X!
b0 Y!
1Z!
b0 ]
bz111 ]!
b0 ^
b1111 ^!
b0 _
b0 _!
1`!
b0 a!
b0 b
b1111 b!
bz111 c!
b1111111110000111 d
b1001011000000000 d!
1e
b0 e!
b1001011000000000 f!
b1110 g
b1001011000000000 g!
b111 h
b1110 i
b110 k
b1 l
bz111 m
b1000 n
b1 o
1p
b1000 q
b1 r
b1111 t
b0 u
1v
bz111 y
b1111 z
b0 {
1|
b0 }
b1111 ~

#540000
0!
0+
05

#550000
1!
0$
b1 &!
b10 '!
b111111111100010000000000001001011 (!
b10110100000000000010010 )!
b1011010000000000001001011 *!
1+
0.
b11 .!
15
06

#560000
0!
0+
05

#570000
1!
0#
1+
0-

#580000
0!
0+

#590000
1!
1+

#600000
0!
0+

#610000
1!
1+

#620000
0!
0+

#630000
1!
1+

#640000
0!
0+

#650000
1!
1+

#660000
0!
0+

#670000
1!
1+

#680000
0!
0+

#690000
1!
1+

#700000
0!
0+

#710000
1!
1+

#720000
0!
0+

#730000
1!
1+

#740000
0!
0+

#750000
1!
1+

#760000
0!
0+

#770000
1!
1#
b10 &!
b11 '!
b10110100000000000010010 (!
b10100101000000000000100 )!
b1010010100000000000010010 *!
1+
1-
b10 .!
15

#780000
0!
0+
05

#790000
1!
b11 &!
b100 '!
b10100101000000000000100 (!
b111111111100111001010000000000001 )!
b111111110011100101000000000000100 *!
1+
b100 .!
15

#800000
0!
0+
05

#810000
1!
b100 &!
b101 '!
b111111111100111001010000000000001 (!
b1000110010100000000000 )!
b100011001010000000000001 *!
1+
b1 .!
15

#820000
0!
0+
05

#830000
1!
b101 &!
b110 '!
b1000110010100000000000 (!
b10001100101000000000 )!
b1000110010100000000000 *!
1+
b0 .!
15

#840000
0!
0+
05

#850000
1!
b110 &!
b111 '!
b10001100101000000000 (!
b100011001010000000 )!
b10001100101000000000 *!
1+
15

#860000
0!
0+
05

#870000
1!
0%!
b111 &!
b1000 '!
b100011001010000000 (!
b1000110010100000 )!
b100011001010000000 *!
1+
b100011001010000 +!
1,!
15

#880000
0!
0+
05

#890000
1!
b100011001010000 "!
1#!
0$!
b1000 &!
b1000110010100000 (!
1+
b0 +!
0,!
15
b100011001010000 <
1=

#900000
0!
0+
05

#910000
1!
b0 "!
0#!
b100011001010000 (
1*
1+
b100011001010000 2
14
15
b0 <
0=

#920000
0!
0+
05

#930000
1!
1$
1$!
1%!
b1111111101101010 &
b0 &!
b1 '!
b11111111011010100 (!
b111111111100010000111111110110101 )!
0*
b111111110001000011111111011010100 *!
1+
1.
b100 .!
b1111111101101010 0
04
15
16
b1111111111100010 8
b1111111011110010 :
b1111111011110010 @!
b11 A
b110101000000000 B
1B!
b11111111 C
b110101011111111 D
0D!
b110101011111111 E
1E!
0F!
b1 G
b1010 H
b10 J
1K
b1101 K!
b1000 L
b10 M
b10 M!
1N!
b110 O
b10 O!
b1101 P!
b1110 Q
0R
b110 S
b1111 S!
b1 T
0T!
b0 U!
b1111 V
b1110 V!
b1111 X
b1110 Y!
b1111 [
b1111 [!
b0 \!
b1111 ]
b1111 _
b1111 _!
b1111 a!
b1111 b
b0 b!
b110101000000000 d!
b11111111 e!
b110101011111111 f!
b1101 g
b110101011111111 g!
b10 i
1j
b10 k
b1101 l
b1111 o
0p
b0 q
b1110 r
b1110 u
b1111 w
b0 x
b1111 {
b1111 }
b0 ~

#940000
0!
0+
05

#950000
1!
0$
b1 &!
b10 '!
b111111111100010000111111110110101 (!
b111111111101001100001111111101101 )!
b111111110100110000111111110110101 *!
1+
0.
b101 .!
15
06

#960000
0!
0+
05

#970000
1!
b10 &!
b11 '!
b111111111101001100001111111101101 (!
b111111111101011011000011111111011 )!
b111111110101101100001111111101101 *!
1+
15

#980000
0!
0+
05

#990000
1!
b11 &!
b100 '!
b111111111101011011000011111111011 (!
b11000110110000111111110 )!
b1100011011000011111111011 *!
1+
b11 .!
15

#1000000
0!
0+
05

#1010000
1!
b100 &!
b101 '!
b11000110110000111111110 (!
b111111111110111001101100001111111 )!
b111111111011100110110000111111110 *!
1+
b110 .!
15

#1020000
0!
0+
05

#1030000
1!
b101 &!
b110 '!
b111111111110111001101100001111111 (!
b111111111111101110011011000011111 )!
b111111111110111001101100001111111 *!
1+
b111 .!
15

#1040000
0!
0+
05

#1050000
1!
b110 &!
b111 '!
b111111111111101110011011000011111 (!
b111111111111111011100110110000111 )!
b111111111111101110011011000011111 *!
1+
15

#1060000
0!
0+
05

#1070000
1!
0%!
b111 &!
b1000 '!
b111111111111111011100110110000111 (!
b111111111111111110111001101100001 )!
b111111111111111011100110110000111 *!
1+
b11111111111111111011100110110000 +!
1,!
15

#1080000
0!
0+
05

#1090000
1!
b11111111111111111011100110110000 "!
1#!
0$!
b1000 &!
b111111111111111110111001101100001 (!
1+
b0 +!
0,!
b1 .!
15
b11111111111111111011100110110000 <
1=

#1100000
0!
0+
05

#1110000
1!
b0 "!
0#!
b1011100110110000 (
b1111111111111111 )
1*
1+
b1011100110110000 2
b1111111111111111 3
14
15
b0 <
0=

#1120000
0!
0+
05

#1130000
1!
bz000 !!
1$
1$!
1%!
b1100010101101000 &
b0 &!
b1101000100100000 '
b1 '!
b11000101011010000 (!
b110001010110100 )!
0*
b11000101011010000 *!
1+
b110100010010000000000000000000000 -!
1.
b0 .!
b1100010101101000 0
b1101000100100000 1
04
15
16
b1001011010001000 8
19
b1111010001001000 :
1;
b1111010001001000 @!
1A!
b1100010101101000 B
b1100010101101000 C
b1100010101101000 D
b1100010101101000 E
b1000 G
b1000 H
b10111011011111 H!
b0 I
0I!
b1000 J
0K
b111 K!
b0 L
b1111 L!
b1000 M
b1000 M!
b110 O
b1000 O!
b10 P
b111 P!
b1000 Q
b1101 R!
b10 S
b100 S!
b100 T
1T!
bz110 U
b100 U!
b101 V
b1011 V!
b1 W
bz111 W!
b110 X
b1110 X!
b100 Y!
b1 Z
b100 [
b100 [!
bz001 \
b1011 \!
b1100 ]
bz111 ]!
b1101 ^
b10 ^!
b1001 _
1`
0`!
b1100 a
b0 a!
b1 b
b1110 b!
bz100 c
bz000 c!
b10111011011111 d
b1100010101101000 d!
0e
b1100010101101000 e!
b1100010101101000 f!
b111 g
b1100010101101000 g!
b1111 h
b1000 i
b1000 k
b111 l
b1101 n
b100 o
1p
b100 q
b1011 r
bz111 s
b1110 t
b100 u
b100 w
b1011 x
bz111 y
b10 z
0|
b0 }
b1110 ~

#1140000
0!
0+
05

#1150000
1!
0$
b1 &!
b10 '!
b110001010110100 (!
b101110111000000001100010101101 )!
b10111011100000000110001010110100 *!
1+
0.
b100 .!
15
06

#1160000
0!
0+
05

#1170000
1!
0#
1+
0-

#1180000
0!
0+

#1190000
1!
1+

#1200000
0!
0+

#1210000
1!
1+

#1220000
0!
0+

#1230000
1!
1+

#1240000
0!
0+

#1250000
1!
1+

#1260000
0!
0+

#1270000
1!
1+

#1280000
0!
0+

#1290000
1!
1+

#1300000
0!
0+

#1310000
1!
1+

#1320000
0!
0+

#1330000
1!
1+

#1340000
0!
0+

#1350000
1!
1+

#1360000
0!
0+

#1370000
1!
1+

#1380000
0!
0+

#1390000
1!
1+

#1400000
0!
0+

#1410000
1!
1+

#1420000
0!
1#
0+
1-

#1430000
1!
b10 &!
b11 '!
b101110111000000001100010101101 (!
b100011001010000000011000101011 )!
b10001100101000000001100010101101 *!
1+
b101 .!
15

#1440000
0!
0+
05

#1450000
1!
b11 &!
b100 '!
b100011001010000000011000101011 (!
b111011001111010100000000110001010 )!
b101100111101010000000011000101011 *!
1+
b11 .!
15

#1460000
0!
0+
05

#1470000
1!
b100 &!
b101 '!
b111011001111010100000000110001010 (!
b111011111000010101000000001100010 )!
b101111100001010100000000110001010 *!
1+
b10 .!
15

#1480000
0!
0+
05

#1490000
1!
b101 &!
b110 '!
b111011111000010101000000001100010 (!
b111100000010100101010000000011000 )!
b110000001010010101000000001100010 *!
1+
15

#1500000
0!
0+
05

#1510000
1!
b110 &!
b111 '!
b111100000010100101010000000011000 (!
b111111000000101001010100000000110 )!
b111100000010100101010000000011000 *!
1+
b0 .!
15

#1520000
0!
0+
05

