ALU_16bit/ALU_16bit.sim/sim_1/behav/xsim/ALU_16bit_tb.vcd
$date
   Tue Jul 29 18:29:22 2025
$end

$version
  2024.1
  $dumpfile ("ALU_16bit_tb.vcd") 
$end

$timescale
  1ps
$end

$scope module ALU_16bit_tb $end
$var reg 1 ! clk $end
$var reg 1 " rst $end
$var reg 1 # start $end
$var reg 4 $ op [3:0] $end
$var reg 16 % A [15:0] $end
$var reg 16 & B [15:0] $end
$var wire 16 ' Z_low [15:0] $end
$var wire 16 ( Z_high [15:0] $end
$var wire 1 ) valid $end
$scope module uut $end
$var wire 1 * clk $end
$var wire 1 + rst $end
$var wire 1 , start $end
$var wire 4 - op [3:0] $end
$var wire 16 . A [15:0] $end
$var wire 16 / B [15:0] $end
$var reg 16 0 Z_low [15:0] $end
$var reg 16 1 Z_high [15:0] $end
$var reg 1 2 valid $end
$var wire 1 3 start_mul $end
$var wire 1 4 start_div $end
$var wire 16 5 sum [15:0] $end
$var wire 1 6 cout $end
$var wire 16 7 diff [15:0] $end
$var wire 1 8 bout $end
$var wire 32 9 mul_z [31:0] $end
$var wire 1 : mul_valid $end
$var wire 16 ; quot [15:0] $end
$var wire 16 < rem [15:0] $end
$var wire 1 = div_valid $end
$var wire 2 > comp_result [1:0] $end
$var wire 16 ? shl_out [15:0] $end
$var wire 16 @ shr_out [15:0] $end
$var wire 16 A rol_out [15:0] $end
$var wire 16 B ror_out [15:0] $end
$scope module adder $end
$var wire 16 . A [15:0] $end
$var wire 16 / B [15:0] $end
$var wire 1 C Cin $end
$var wire 16 5 Sum [15:0] $end
$var wire 1 6 Cout $end
$scope module cla_add $end
$var wire 16 . A [15:0] $end
$var wire 16 / B [15:0] $end
$var wire 1 C Cin $end
$var wire 16 5 Sum [15:0] $end
$var wire 1 6 Cout $end
$var wire 4 D C_block [3:0] $end
$scope module CLA0 $end
$var wire 4 E A [3:0] $end
$var wire 4 F B [3:0] $end
$var wire 1 C Cin $end
$var wire 4 G Sum [3:0] $end
$var wire 1 H Cout $end
$var wire 4 I G [3:0] $end
$var wire 4 J P [3:0] $end
$var wire 4 K C [3:0] $end
$upscope $end
$scope module CLA1 $end
$var wire 4 L A [7:4] $end
$var wire 4 M B [7:4] $end
$var wire 1 H Cin $end
$var wire 4 N Sum [7:4] $end
$var wire 1 O Cout $end
$var wire 4 P G [3:0] $end
$var wire 4 Q P [3:0] $end
$var wire 4 R C [3:0] $end
$upscope $end
$scope module CLA2 $end
$var wire 4 S A [11:8] $end
$var wire 4 T B [11:8] $end
$var wire 1 O Cin $end
$var wire 4 U Sum [11:8] $end
$var wire 1 V Cout $end
$var wire 4 W G [3:0] $end
$var wire 4 X P [3:0] $end
$var wire 4 Y C [3:0] $end
$upscope $end
$scope module CLA3 $end
$var wire 4 Z A [15:12] $end
$var wire 4 [ B [15:12] $end
$var wire 1 V Cin $end
$var wire 4 \ Sum [15:12] $end
$var wire 1 ] Cout $end
$var wire 4 ^ G [3:0] $end
$var wire 4 _ P [3:0] $end
$var wire 4 ` C [3:0] $end
$upscope $end
$upscope $end
$upscope $end
$scope module subtractor $end
$var wire 16 . A [15:0] $end
$var wire 16 / B [15:0] $end
$var wire 1 C Bin $end
$var wire 16 7 Diff [15:0] $end
$var wire 1 8 Bout $end
$var wire 16 a B_inverted [15:0] $end
$var wire 1 b Cout $end
$var wire 1 c Cin $end
$scope module cla_sub $end
$var wire 16 . A [15:0] $end
$var wire 16 a B [15:0] $end
$var wire 1 c Cin $end
$var wire 16 7 Sum [15:0] $end
$var wire 1 b Cout $end
$var wire 4 d C_block [3:0] $end
$scope module CLA0 $end
$var wire 4 E A [3:0] $end
$var wire 4 e B [3:0] $end
$var wire 1 c Cin $end
$var wire 4 f Sum [3:0] $end
$var wire 1 g Cout $end
$var wire 4 h G [3:0] $end
$var wire 4 i P [3:0] $end
$var wire 4 j C [3:0] $end
$upscope $end
$scope module CLA1 $end
$var wire 4 L A [7:4] $end
$var wire 4 k B [7:4] $end
$var wire 1 g Cin $end
$var wire 4 l Sum [7:4] $end
$var wire 1 m Cout $end
$var wire 4 n G [3:0] $end
$var wire 4 o P [3:0] $end
$var wire 4 p C [3:0] $end
$upscope $end
$scope module CLA2 $end
$var wire 4 S A [11:8] $end
$var wire 4 q B [11:8] $end
$var wire 1 m Cin $end
$var wire 4 r Sum [11:8] $end
$var wire 1 s Cout $end
$var wire 4 t G [3:0] $end
$var wire 4 u P [3:0] $end
$var wire 4 v C [3:0] $end
$upscope $end
$scope module CLA3 $end
$var wire 4 Z A [15:12] $end
$var wire 4 w B [15:12] $end
$var wire 1 s Cin $end
$var wire 4 x Sum [15:12] $end
$var wire 1 y Cout $end
$var wire 4 z G [3:0] $end
$var wire 4 { P [3:0] $end
$var wire 4 | C [3:0] $end
$upscope $end
$upscope $end
$upscope $end
$scope module multiplier $end
$var wire 1 * clk $end
$var wire 1 + rst $end
$var wire 1 3 start $end
$var wire 16 . X [15:0] $end
$var wire 16 / Y [15:0] $end
$var reg 32 } Z [31:0] $end
$var reg 1 ~ valid $end
$var reg 1 !! pres_state $end
$var reg 1 "! next_state $end
$var reg 4 #! count [3:0] $end
$var reg 4 $! next_count [3:0] $end
$var reg 33 %! P [32:0] $end
$var reg 33 &! next_P [32:0] $end
$var reg 33 '! P_temp [32:0] $end
$var reg 32 (! next_Z [31:0] $end
$var reg 1 )! next_valid $end
$var wire 33 *! M_ext [32:0] $end
$var wire 3 +! triple [2:0] $end
$upscope $end
$scope module divider $end
$var wire 1 * clk $end
$var wire 1 + rst $end
$var wire 1 4 start $end
$var wire 16 . A [15:0] $end
$var wire 16 / B [15:0] $end
$var wire 16 ; quot [15:0] $end
$var wire 16 < rem [15:0] $end
$var reg 1 ,! valid $end
$var reg 32 -! Z [31:0] $end
$var reg 32 .! next_Z [31:0] $end
$var reg 32 /! Z_temp [31:0] $end
$var reg 32 0! Z_temp1 [31:0] $end
$var reg 1 1! pres_state $end
$var reg 1 2! next_state $end
$var reg 4 3! count [3:0] $end
$var reg 4 4! next_count [3:0] $end
$var reg 16 5! quot_reg [15:0] $end
$var reg 16 6! rem_reg [15:0] $end
$var reg 1 7! sign_A $end
$var reg 1 8! sign_B $end
$var reg 1 9! sign_q $end
$var reg 1 :! sign_r $end
$var reg 16 ;! A_abs [15:0] $end
$var reg 16 <! B_abs [15:0] $end
$upscope $end
$scope module comparator $end
$var wire 16 . A [15:0] $end
$var wire 16 / B [15:0] $end
$var wire 2 > comp_out [1:0] $end
$var wire 16 =! Diff [15:0] $end
$var wire 1 >! Bout $end
$var wire 1 ?! sign $end
$var wire 1 @! zero $end
$var wire 1 A! overflow $end
$var wire 1 B! lt $end
$var wire 1 C! gt $end
$scope module sub $end
$var wire 16 . A [15:0] $end
$var wire 16 / B [15:0] $end
$var wire 1 D! Bin $end
$var wire 16 =! Diff [15:0] $end
$var wire 1 >! Bout $end
$var wire 16 E! B_inverted [15:0] $end
$var wire 1 F! Cout $end
$var wire 1 G! Cin $end
$scope module cla_sub $end
$var wire 16 . A [15:0] $end
$var wire 16 E! B [15:0] $end
$var wire 1 G! Cin $end
$var wire 16 =! Sum [15:0] $end
$var wire 1 F! Cout $end
$var wire 4 H! C_block [3:0] $end
$scope module CLA0 $end
$var wire 4 E A [3:0] $end
$var wire 4 I! B [3:0] $end
$var wire 1 G! Cin $end
$var wire 4 J! Sum [3:0] $end
$var wire 1 K! Cout $end
$var wire 4 L! G [3:0] $end
$var wire 4 M! P [3:0] $end
$var wire 4 N! C [3:0] $end
$upscope $end
$scope module CLA1 $end
$var wire 4 L A [7:4] $end
$var wire 4 O! B [7:4] $end
$var wire 1 K! Cin $end
$var wire 4 P! Sum [7:4] $end
$var wire 1 Q! Cout $end
$var wire 4 R! G [3:0] $end
$var wire 4 S! P [3:0] $end
$var wire 4 T! C [3:0] $end
$upscope $end
$scope module CLA2 $end
$var wire 4 S A [11:8] $end
$var wire 4 U! B [11:8] $end
$var wire 1 Q! Cin $end
$var wire 4 V! Sum [11:8] $end
$var wire 1 W! Cout $end
$var wire 4 X! G [3:0] $end
$var wire 4 Y! P [3:0] $end
$var wire 4 Z! C [3:0] $end
$upscope $end
$scope module CLA3 $end
$var wire 4 Z A [15:12] $end
$var wire 4 [! B [15:12] $end
$var wire 1 W! Cin $end
$var wire 4 \! Sum [15:12] $end
$var wire 1 ]! Cout $end
$var wire 4 ^! G [3:0] $end
$var wire 4 _! P [3:0] $end
$var wire 4 `! C [3:0] $end
$upscope $end
$upscope $end
$upscope $end
$upscope $end
$scope module shl $end
$var wire 16 . in [15:0] $end
$var wire 4 F ctrl [3:0] $end
$var reg 16 a! out [15:0] $end
$upscope $end
$scope module shr $end
$var wire 16 . in [15:0] $end
$var wire 4 F ctrl [3:0] $end
$var reg 16 b! out [15:0] $end
$upscope $end
$scope module rol $end
$var wire 16 . in [15:0] $end
$var wire 4 F ctrl [3:0] $end
$var reg 16 c! out [15:0] $end
$upscope $end
$scope module ror $end
$var wire 16 . in [15:0] $end
$var wire 4 F ctrl [3:0] $end
$var reg 16 d! out [15:0] $end
$upscope $end
$upscope $end
$scope task ALU $end
$var reg 4 e! opcode [3:0] $end
$var reg 16 f! a_val [15:0] $end
$var reg 16 g! b_val [15:0] $end
$upscope $end
$upscope $end
$enddefinitions $end

#0
$dumpvars
0!
0!!
0"
0"!
0#
b0 #!
b0 $
b0 $!
b0 %
b0 %!
b0 &
b0 &!
b0 '
bx '!
b0 (
b0 (!
0)
0)!
0*
b0 *!
0+
b0 +!
0,
0,!
b0 -
b0 -!
b0 .
b0 .!
b0 /
bx /!
b0 0
bx 0!
b0 1
01!
02
02!
03
b0 3!
04
b0 4!
b0 5
b0 5!
06
b0 6!
b0 7
07!
08
08!
b0 9
09!
0:
0:!
b0 ;
b0 ;!
b0 <
b0 <!
0=
b0 =!
b0 >
0>!
b0 ?
0?!
b0 @
1@!
b0 A
0A!
b0 B
0B!
0C
0C!
b0 D
0D!
b0 E
b1111111111111111 E!
b0 F
1F!
b0 G
1G!
0H
b1111 H!
b0 I
b1111 I!
b0 J
b0 J!
bz000 K
1K!
b0 L
b0 L!
b0 M
b1111 M!
b0 N
bz111 N!
0O
b1111 O!
b0 P
b0 P!
b0 Q
1Q!
bz000 R
b0 R!
b0 S
b1111 S!
b0 T
bz111 T!
b0 U
b1111 U!
0V
b0 V!
b0 W
1W!
b0 X
b0 X!
bz000 Y
b1111 Y!
b0 Z
bz111 Z!
b0 [
b1111 [!
b0 \
b0 \!
0]
1]!
b0 ^
b0 ^!
b0 _
b1111 _!
bz000 `
bz111 `!
b1111111111111111 a
b0 a!
1b
b0 b!
1c
b0 c!
b1111 d
b0 d!
b1111 e
bx e!
b0 f
bx f!
1g
bx g!
b0 h
b1111 i
bz111 j
b1111 k
b0 l
1m
b0 n
b1111 o
bz111 p
b1111 q
b0 r
1s
b0 t
b1111 u
bz111 v
b1111 w
b0 x
1y
b0 z
b1111 {
bz111 |
b0 }
0~
$end

#10000
1!
1*

#20000
0!
0*

#30000
1!
1*

#40000
0!
0*

#50000
1!
1"
1#
b1100100 %
b11001 &
b1111101 '
1)
1*
b1100100000000000000000 *!
1+
1,
b1100100 .
b11001 /
b1111101 0
12
b1111101 5
b1001011 7
b1001011 =!
b1 >
b1100100000000000 ?
0@!
b1100100000000000 A
b11001000000000 B
1C!
b100 E
b1111111111100110 E!
b1001 F
b1101 G
b1110 H!
b110 I!
b1101 J
b1011 J!
0K!
b110 L
b100 L!
b1 M
b10 M!
b111 N
bz100 N!
b1110 O!
b100 P!
b111 Q
b110 R!
b0 S
b1000 S!
b0 T
bz110 T!
b1111 U!
b0 Z
b0 [
b1111 [!
b1111111111100110 a
b1100100000000000 a!
b1100100000000000 c!
b1110 d
b11001000000000 d!
b110 e
b0 e!
b1011 f
b1100100 f!
0g
b11001 g!
b100 h
b10 i
bz100 j
b1110 k
b100 l
b110 n
b1000 o
bz110 p
b1111 q
b1111 w

#60000
0!
0*

#70000
1!
0#
0)
1*
0,
02

#80000
0!
0*

#90000
1!
1*

#100000
0!
0*

#110000
1!
1#
b1111111110011100 %
b1111111110110101 '
b1111111111111111 (
1)
1*
1,
b1111111110011100 .
b1111111110110101 0
b1111111111111111 1
12
b1111111110110101 5
b1111111110000011 7
b1111111110000011 =!
b11 >
b11100000000000 ?
1?!
b1111111 @
b11100111111111 A
0A!
b1100111001111111 B
1B!
0C!
b1 D
b1100 E
b101 G
1H
b1111 H!
b1000 I
b101 J
b11 J!
1K!
b1001 L
b1010 M!
b1011 N
b1 P
b1000 P!
b1000 Q
bz001 R
b1000 R!
b1111 S
b111 S!
bz111 T!
b1111 U
b1111 V!
b1111 X
b1111 X!
b0 Y!
b1111 Z
b1111 \
b1111 \!
b1111 ^!
b1111 _
b0 _!
b11100000000000 a!
b1111111 b!
b11100111111111 c!
b1111 d
b1100111001111111 d!
b11 f
b1111111110011100 f!
1g
b1010 i
b1000 l
b1000 n
b111 o
bz111 p
b1111 r
b1111 t
b0 u
b1111 x
b1111 z
b0 {

#120000
0!
0*

#130000
1!
0#
0)
1*
0,
02

#140000
0!
0*

#150000
1!
1*

#160000
0!
0*

#170000
1!
1#
b1111111111100111 &
b1111111110000011 '
1)
1*
b111111111110011100000000000000000 *!
1,
b1111111111100111 /
b1111111110000011 0
12
b1111111110000011 5
16
b1111111110110101 7
18
b1111111110110101 =!
1>!
b1100111000000000 ?
b111111111 @
b1100111001111111 A
b11100111111111 B
b1111 D
b11000 E!
b111 F
0F!
b11 G
b1 H!
b100 I
b1000 I!
b1011 J
b101 J!
bz100 K
b1000 L!
b1110 M
b100 M!
b1000 N
bz000 N!
1O
b1 O!
b1000 P
b1011 P!
b111 Q
0Q!
bz111 R
b1 R!
b1000 S!
b1111 T
bz001 T!
b0 U!
1V
b1111 W
0W!
b0 X
b0 X!
bz111 Y
b1111 Y!
bz000 Z!
b1111 [
b0 [!
1]
0]!
b1111 ^
b0 ^!
b0 _
b1111 _!
bz111 `
bz000 `!
b11000 a
b1100111000000000 a!
0b
b111111111 b!
b1100111001111111 c!
b1 d
b11100111111111 d!
b1000 e
b101 f
b1111111111100111 g!
b1000 h
b100 i
bz000 j
b1 k
b1011 l
0m
b1 n
b1000 o
bz001 p
b0 q
0s
b0 t
b1111 u
bz000 v
b0 w
0y
b0 z
b1111 {
bz000 |

#180000
0!
0*

#190000
1!
0#
0)
1*
0,
02

#200000
0!
0*

#210000
1!
1*

#220000
0!
0*

#230000
1!
1#
b111111111111111 %
b1 &
b1000000000000000 '
1)
1*
b100000000000000000 *!
1,
b111111111111111 .
b1 /
b1000000000000000 0
12
b1000000000000000 5
06
b111111111111110 7
08
b111111111111110 =!
b1 >
0>!
b1111111111111110 ?
0?!
b11111111111111 @
b1111111111111110 A
b1011111111111111 B
0B!
1C!
b111 D
b1111 E
b1111111111111110 E!
b1 F
1F!
b0 G
b1111 H!
b1 I
b1110 I!
b1110 J
b1110 J!
bz111 K
b1111 L
b1110 L!
b0 M
b1 M!
b0 N
bz111 N!
b1111 O!
b0 P
b1111 P!
b1111 Q
1Q!
b1111 R!
b1111 S
b0 S!
b0 T
bz111 T!
b0 U
b1111 U!
b0 W
1W!
b1111 X
b1111 X!
b0 Y!
b111 Z
bz111 Z!
b0 [
b1111 [!
b1000 \
b111 \!
0]
1]!
b0 ^
b111 ^!
b111 _
b1000 _!
bz111 `!
b1111111111111110 a
b1111111111111110 a!
1b
b11111111111111 b!
b1111111111111110 c!
b1111 d
b1011111111111111 d!
b1110 e
b1110 f
b111111111111111 f!
b1 g!
b1110 h
b1 i
bz111 j
b1111 k
b1111 l
1m
b1111 n
b0 o
bz111 p
b1111 q
1s
b1111 t
b0 u
bz111 v
b1111 w
b111 x
1y
b111 z
b1000 {
bz111 |

#240000
0!
0*

#250000
1!
0#
0)
1*
0,
02

#260000
0!
0*

#270000
1!
1*

#280000
0!
0*

#290000
1!
1#
b1 $
b11111010 %
b110010 &
b11001000 '
b0 (
1)
1*
b11001000000000000000000 *!
1,
b1 -
b11111010 .
b110010 /
b11001000 0
b0 1
12
b100101100 5
b11001000 7
b11001000 =!
b1111101000 ?
b111110 @
b1111101000 A
b1000000000111110 B
b10 D
b1010 E
b1111111111001101 E!
b10 F
b1100 G
0H
b10 I
b1101 I!
b1000 J
b1000 J!
bz010 K
b1111 L
b1000 L!
b11 M
b111 M!
b10 N
b1100 O!
b11 P
b1100 P!
b1100 Q
b1100 R!
b0 S
b11 S!
b0 T
b1 U
b1111 U!
0V
b0 V!
b0 X
b0 X!
bz000 Y
b1111 Y!
b0 Z
b0 [
b1111 [!
b0 \
b0 \!
b0 ^!
b0 _
b1111 _!
bz000 `
b1111111111001101 a
b1111101000 a!
b111110 b!
b1111101000 c!
b1000000000111110 d!
b1101 e
b1 e!
b1000 f
b11111010 f!
b110010 g!
b1000 h
b111 i
b1100 k
b1100 l
b1100 n
b11 o
b1111 q
b0 r
b0 t
b1111 u
b1111 w
b0 x
b0 z
b1111 {

#300000
0!
0*

#310000
1!
0#
0)
1*
0,
02

#320000
0!
0*

#330000
1!
1*

#340000
0!
0*

#350000
1!
1#
b1111111100000110 %
b1111111011010100 '
b1111111111111111 (
1)
1*
1,
b1111111100000110 .
b1111111011010100 0
b1111111111111111 1
12
b1111111100111000 5
b1111111011010100 7
b1111111011010100 =!
b11 >
b1111110000011000 ?
1?!
b11111111000001 @
b1111110000011011 A
0A!
b1011111111000001 B
1B!
0C!
b0 D
b110 E
b1000 G
b1101 H!
b100 J
b100 J!
bz110 K
b0 L
b100 L!
b1011 M!
b11 N
0O
b0 P
b1101 P!
b11 Q
0Q!
bz000 R
b0 R!
b1111 S
b1100 S!
bz000 T!
b1111 U
b1110 V!
b1111 X
b1111 X!
b0 Y!
b1111 Z
b1111 \
b1111 \!
b1111 ^!
b1111 _
b0 _!
b1111110000011000 a!
b11111111000001 b!
b1111110000011011 c!
b1101 d
b1011111111000001 d!
b100 f
b1111111100000110 f!
b100 h
b1011 i
b1101 l
0m
b0 n
b1100 o
bz000 p
b1110 r
b1111 t
b0 u
b1111 x
b1111 z
b0 {

#360000
0!
0*

#370000
1!
0#
0)
1*
0,
02

#380000
0!
0*

#390000
1!
1*

#400000
0!
0*

#410000
1!
1#
b1111111111001110 &
b1111111100111000 '
1)
1*
b111111111100111000000000000000000 *!
1,
b1111111111001110 /
b1111111100111000 0
12
b1111111011010100 5
16
b1111111100111000 7
18
b1111111100111000 =!
1>!
b1000000000000000 ?
b11 @
b1011111111000001 A
b1111110000011011 B
b1101 D
b110001 E!
b1110 F
0F!
b100 G
1H
b0 H!
b110 I
b1 I!
b1000 J
b1000 J!
0K!
b0 L!
b1100 M
b111 M!
b1101 N
b11 O!
b11 P!
b1100 Q
b11 S!
b1111 T
b1110 U
b0 U!
1V
b1111 V!
b1111 W
0W!
b0 X
b0 X!
bz111 Y
b1111 Y!
bz000 Z!
b1111 [
b0 [!
1]
0]!
b1111 ^
b0 ^!
b0 _
b1111 _!
bz111 `
bz000 `!
b110001 a
b1000000000000000 a!
0b
b11 b!
b1011111111000001 c!
b0 d
b1111110000011011 d!
b1 e
b1000 f
0g
b1111111111001110 g!
b0 h
b111 i
b11 k
b11 l
b11 o
b0 q
b1111 r
0s
b0 t
b1111 u
bz000 v
b0 w
0y
b0 z
b1111 {
bz000 |

#420000
0!
0*

#430000
1!
0#
0)
1*
0,
02

#440000
0!
0*

#450000
1!
1*

#460000
0!
0*

#470000
1!
1#
b1000000000000000 %
b1 &
b111111111111111 '
b0 (
1)
1*
b100000000000000000 *!
1,
b1000000000000000 .
b1 /
b111111111111111 0
b0 1
12
b1000000000000001 5
06
b111111111111111 7
08
b111111111111111 =!
0>!
b0 ?
0?!
b100000000000000 @
b1 A
1A!
b100000000000000 B
b0 D
b0 E
b1111111111111110 E!
b1 F
1F!
b1 G
0H
b1000 H!
b0 I
b1110 I!
b1 J
b1111 J!
bz000 K
b0 L
b0 M
b1110 M!
b0 N
bz000 N!
b1111 O!
b1111 P!
b0 Q
b0 S
b1111 S!
b0 T
b0 U
b1111 U!
0V
b0 W
bz000 Y
b1000 Z
b0 [
b1111 [!
b1000 \
b111 \!
0]
1]!
b0 ^
b1000 ^!
b1000 _
b111 _!
bz000 `
b1111111111111110 a
b0 a!
1b
b100000000000000 b!
b1 c!
b1000 d
b100000000000000 d!
b1110 e
b1111 f
b1000000000000000 f!
b1 g!
b1110 i
bz000 j
b1111 k
b1111 l
b1111 o
b1111 q
b1111 w
b111 x
1y
b1000 z
b111 {

#480000
0!
0*

#490000
1!
0#
0)
1*
0,
02

#500000
0!
0*

#510000
1!
1*

#520000
0!
0*

#530000
1!
1!!
1"!
1#
b10 $
b1 $!
b10010110 %
b100101100 %!
b1111000 &
b111111111100010000000000001001011 &!
b111111110001000000000000100101100 '!
1*
b111100000000000000000000 *!
b100 +!
1,
b10 -
b10010110 .
b1111000 /
13
b100001110 5
b11110 7
08
b11110 =!
b1 >
0>!
b1001011000000000 ?
0?!
b0 @
b1001011000000000 A
0A!
b1001011000000000 B
0B!
1C!
b10 D
b110 E
b1111111110000111 E!
b1000 F
1F!
b1110 G
b1110 H!
b111 I!
b1110 J
b1110 J!
b1001 L
b110 L!
b111 M
b1 M!
bz111 N!
1O
b1000 O!
b1 P
b1 P!
b1110 Q
1Q!
bz111 R
b1000 R!
b0 S
b1 S!
b0 T
b1 U
b1111 U!
b0 V!
1W!
b0 Z
bz111 Z!
b0 [
b1111 [!
b0 \
b0 \!
1]!
b0 ^!
b0 _
b1111 _!
bz111 `!
b1111111110000111 a
b1001011000000000 a!
1b
b0 b!
b1001011000000000 c!
b1110 d
b1001011000000000 d!
b111 e
b10 e!
b1110 f
b10010110 f!
b1111000 g!
b110 h
b1 i
bz111 j
b1000 k
b1 l
1m
b1000 n
b1 o
b1111 q
b0 r
1s
bz111 v
b1111 w
b0 x
1y
b0 z
b1111 {
bz111 |

#540000
0!
0*

#550000
1!
0#
b1 #!
b10 $!
b111111111100010000000000001001011 %!
b10110100000000000010010 &!
b1011010000000000001001011 '!
1*
b11 +!
0,
03

#560000
0!
0*

#570000
1!
b10 #!
b11 $!
b10110100000000000010010 %!
b10100101000000000000100 &!
b1010010100000000000010010 '!
1*
b10 +!

#580000
0!
0*

#590000
1!
b11 #!
b100 $!
b10100101000000000000100 %!
b111111111100111001010000000000001 &!
b111111110011100101000000000000100 '!
1*
b100 +!

#600000
0!
0*

#610000
1!
b100 #!
b101 $!
b111111111100111001010000000000001 %!
b1000110010100000000000 &!
b100011001010000000000001 '!
1*
b1 +!

#620000
0!
0*

#630000
1!
b101 #!
b110 $!
b1000110010100000000000 %!
b10001100101000000000 &!
b1000110010100000000000 '!
1*
b0 +!

#640000
0!
0*

#650000
1!
b110 #!
b111 $!
b10001100101000000000 %!
b100011001010000000 &!
b10001100101000000000 '!
1*

#660000
0!
0*

#670000
1!
0"!
b111 #!
b1000 $!
b100011001010000000 %!
b1000110010100000 &!
b100011001010000000 '!
b100011001010000 (!
1)!
1*

#680000
0!
0*

#690000
1!
0!!
b1000 #!
b1000110010100000 %!
b0 (!
0)!
1*
b100011001010000 9
1:
b100011001010000 }
1~

#700000
0!
0*

#710000
1!
b100011001010000 '
1)
1*
b100011001010000 0
12
b0 9
0:
b0 }
0~

#720000
0!
0*

#730000
1!
1!!
1"!
1#
b0 #!
b1 $!
b1111111101101010 %
b11111111011010100 %!
b111111111100010000111111110110101 &!
b111111110001000011111111011010100 '!
0)
1*
b100 +!
1,
b1111111101101010 .
02
13
b1111111111100010 5
b1111111011110010 7
b1111111011110010 =!
b11 >
b110101000000000 ?
1?!
b11111111 @
b110101011111111 A
0A!
b110101011111111 B
1B!
0C!
b1 D
b1010 E
b10 G
1H
b1101 H!
b1000 I
b10 J
b10 J!
1K!
b110 L
b10 L!
b1101 M!
b1110 N
0O
b110 P
b1111 P!
b1 Q
0Q!
b0 R!
b1111 S
b1110 S!
b1111 U
b1110 V!
b1111 X
b1111 X!
b0 Y!
b1111 Z
b1111 \
b1111 \!
b1111 ^!
b1111 _
b0 _!
b110101000000000 a!
b11111111 b!
b110101011111111 c!
b1101 d
b110101011111111 d!
b10 f
b1111111101101010 f!
1g
b10 h
b1101 i
b1111 l
0m
b0 n
b1110 o
b1110 r
b1111 t
b0 u
b1111 x
b1111 z
b0 {

#740000
0!
0*

#750000
1!
0#
b1 #!
b10 $!
b111111111100010000111111110110101 %!
b111111111101001100001111111101101 &!
b111111110100110000111111110110101 '!
1*
b101 +!
0,
03

#760000
0!
0*

#770000
1!
b10 #!
b11 $!
b111111111101001100001111111101101 %!
b111111111101011011000011111111011 &!
b111111110101101100001111111101101 '!
1*

#780000
0!
0*

#790000
1!
b11 #!
b100 $!
b111111111101011011000011111111011 %!
b11000110110000111111110 &!
b1100011011000011111111011 '!
1*
b11 +!

#800000
0!
0*

#810000
1!
b100 #!
b101 $!
b11000110110000111111110 %!
b111111111110111001101100001111111 &!
b111111111011100110110000111111110 '!
1*
b110 +!

#820000
0!
0*

#830000
1!
b101 #!
b110 $!
b111111111110111001101100001111111 %!
b111111111111101110011011000011111 &!
b111111111110111001101100001111111 '!
1*
b111 +!

#840000
0!
0*

#850000
1!
b110 #!
b111 $!
b111111111111101110011011000011111 %!
b111111111111111011100110110000111 &!
b111111111111101110011011000011111 '!
1*

#860000
0!
0*

#870000
1!
0"!
b111 #!
b1000 $!
b111111111111111011100110110000111 %!
b111111111111111110111001101100001 &!
b111111111111111011100110110000111 '!
b11111111111111111011100110110000 (!
1)!
1*

#880000
0!
0*

#890000
1!
0!!
b1000 #!
b111111111111111110111001101100001 %!
b0 (!
0)!
1*
b1 +!
b11111111111111111011100110110000 9
1:
b11111111111111111011100110110000 }
1~

#900000
0!
0*

#910000
1!
b1011100110110000 '
b1111111111111111 (
1)
1*
b1011100110110000 0
b1111111111111111 1
12
b0 9
0:
b0 }
0~

#920000
0!
0*

#930000
1!
1!!
1"!
1#
b0 #!
b1 $!
b1100010101101000 %
b11000101011010000 %!
b1101000100100000 &
b110001010110100 &!
b11000101011010000 '!
0)
1*
b110100010010000000000000000000000 *!
b0 +!
1,
b1100010101101000 .
b1101000100100000 /
02
13
b1001011010001000 5
16
b1111010001001000 7
18
b1111010001001000 =!
1>!
b1100010101101000 ?
b1100010101101000 @
b1100010101101000 A
b1100010101101000 B
b1000 D
b1000 E
b10111011011111 E!
b0 F
0F!
b1000 G
0H
b111 H!
b0 I
b1111 I!
b1000 J
b1000 J!
b110 L
b1000 L!
b10 M
b111 M!
b1000 N
b1101 O!
b10 P
b100 P!
b100 Q
1Q!
bz110 R
b100 R!
b101 S
b1011 S!
b1 T
bz111 T!
b110 U
b1110 U!
b100 V!
b1 W
b100 X
b100 X!
bz001 Y
b1011 Y!
b1100 Z
bz111 Z!
b1101 [
b10 [!
b1001 \
1]
0]!
b1100 ^
b0 ^!
b1 _
b1110 _!
bz100 `
bz000 `!
b10111011011111 a
b1100010101101000 a!
0b
b1100010101101000 b!
b1100010101101000 c!
b111 d
b1100010101101000 d!
b1111 e
b1000 f
b1100010101101000 f!
b1101000100100000 g!
b1000 h
b111 i
b1101 k
b100 l
1m
b100 n
b1011 o
bz111 p
b1110 q
b100 r
b100 t
b1011 u
bz111 v
b10 w
0y
b0 z
b1110 {
bz000 |

#940000
0!
0*

#950000
1!
0#
b1 #!
b10 $!
b110001010110100 %!
b101110111000000001100010101101 &!
b10111011100000000110001010110100 '!
1*
b100 +!
0,
03

#960000
0!
0*

#970000
1!
b10 #!
b11 $!
b101110111000000001100010101101 %!
b100011001010000000011000101011 &!
b10001100101000000001100010101101 '!
1*
b101 +!

#980000
0!
0*

#990000
1!
b11 #!
b100 $!
b100011001010000000011000101011 %!
b111011001111010100000000110001010 &!
b101100111101010000000011000101011 '!
1*
b11 +!

#1000000
0!
0*

#1010000
1!
b100 #!
b101 $!
b111011001111010100000000110001010 %!
b111011111000010101000000001100010 &!
b101111100001010100000000110001010 '!
1*
b10 +!

#1020000
0!
0*

#1030000
1!
b101 #!
b110 $!
b111011111000010101000000001100010 %!
b111100000010100101010000000011000 &!
b110000001010010101000000001100010 '!
1*

#1040000
0!
0*

#1050000
1!
b110 #!
b111 $!
b111100000010100101010000000011000 %!
b111111000000101001010100000000110 &!
b111100000010100101010000000011000 '!
1*
b0 +!

#1060000
0!
0*

#1070000
1!
0"!
b111 #!
b1000 $!
b111111000000101001010100000000110 %!
b10101011101010010101000000001 &!
b1010101110101001010100000000110 '!
b1010101110101001010100000000 (!
1)!
1*
b110 +!

#1080000
0!
0*

#1090000
1!
0!!
b1000 #!
b10101011101010010101000000001 %!
b0 (!
0)!
1*
b1 +!
b1010101110101001010100000000 9
1:
b1010101110101001010100000000 }
1~

#1100000
0!
0*

#1110000
1!
b1001010100000000 '
b101010111010 (
1)
1*
b1001010100000000 0
b101010111010 1
12
b0 9
0:
b0 }
0~

#1120000
0!
0*

